1
2
9
23
23
32
36
54
72
74
78
83
88
89
96
97
108
123
125
132
148
159
163
165
178
190
192
193
209
227
242
249
255
266
284
293
305
312
331
346
360
363
374
376
389
402
406
407
418
431
439
446
450
452
469
486
505
508
509
518
536
552
567
577
579
587
593
593
595
599
607
613
618
628
637
647
657
663
664
677
685
694
697
701
715
731
731
737
753
764
772
776
795
801
804
821
839
857
859
868
